using System.Collections;
using System.Collections.Generic;
using UnityEngine;

public class Task02 : MonoBehaviour
{
    int day = 100;
    int sum = 0;
    int car = 0;
    bool d;
    void Start()
    {
        for (int i = 0; i < day; i++)
        {
            if (car <= 20)
            {
                d = true;
            }
            else
                d = false;

            switch (d)
            {
                case true:

                    car += 7;
                    sum += 7;

                    break;

                case false:

                    car = 0;
                    sum++;

                    break;
            }
        }
        Debug.Log(sum);
    }
}
